<svg width="16" height="16" viewBox="0 0 16 16" fill="none" xmlns="http://www.w3.org/2000/svg">
<path d="M6 3L11 8.5L6 14" stroke="#282828" stroke-width="1.4" stroke-linecap="round" stroke-linejoin="round"/>
</svg>
